<svg width="137" height="247" viewBox="0 0 137 247" fill="none" xmlns="http://www.w3.org/2000/svg">
<path d="M-5.04268 231.902C16.3362 227.516 36.7131 217.031 53.3009 200.446C98.4102 155.344 98.4162 82.2132 53.3143 37.1039C40.5104 24.2979 25.4476 15.1269 9.40819 9.59095" stroke="black" stroke-opacity="0.2" stroke-dasharray="13 13"/>
<circle cx="85.7041" cy="132.704" r="11.2048" transform="rotate(-98.2925 85.7041 132.704)" fill="#3ED170"/>
</svg>
