<svg width="135" height="26" viewBox="0 0 135 26" fill="none" xmlns="http://www.w3.org/2000/svg">
<path d="M49.2238 4.50279V20.7235H46.0189V10.2032L41.4103 17.7342H41.036L36.4275 10.2264V20.7235H33.1992V4.50279H36.5211L41.2232 12.1729L45.9019 4.50279H49.2238ZM59.8547 9.13727H62.8724V20.7235H59.8547V19.4258C59.1217 20.5072 57.9598 21.0479 56.369 21.0479C55.0902 21.0479 54.0297 20.6231 53.1875 19.7734C52.3609 18.9238 51.9476 17.7497 51.9476 16.2512V9.13727H54.9654V15.8804C54.9654 16.6529 55.176 17.2476 55.597 17.6647C56.0181 18.0664 56.5796 18.2672 57.2814 18.2672C58.0611 18.2672 58.685 18.0278 59.1528 17.5489C59.6207 17.07 59.8547 16.3516 59.8547 15.3938V9.13727ZM65.6363 20.7235V3.80762H68.654V20.7235H65.6363ZM78.1065 12.0107H75.463V16.8305C75.463 17.2322 75.5644 17.5257 75.7671 17.7111C75.9698 17.8964 76.2662 18.0046 76.6561 18.0355C77.0459 18.0509 77.5294 18.0432 78.1065 18.0123V20.7235C76.0322 20.9552 74.5662 20.7621 73.7085 20.1442C72.8663 19.5262 72.4452 18.4217 72.4452 16.8305V12.0107H70.41V9.13727H72.4452V6.79686L75.463 5.89313V9.13727H78.1065V12.0107ZM81.7315 7.74693C81.2324 7.74693 80.7957 7.56927 80.4214 7.21396C80.0627 6.8432 79.8834 6.41065 79.8834 5.91631C79.8834 5.42196 80.0627 4.98941 80.4214 4.61865C80.7957 4.24789 81.2324 4.06251 81.7315 4.06251C82.2461 4.06251 82.6828 4.24789 83.0415 4.61865C83.4158 4.98941 83.603 5.42196 83.603 5.91631C83.603 6.41065 83.4158 6.8432 83.0415 7.21396C82.6828 7.56927 82.2461 7.74693 81.7315 7.74693ZM80.2343 20.7235V9.13727H83.252V20.7235H80.2343Z" fill="#3663F5"/>
<path d="M92.8214 8.8125C94.3966 8.8125 95.7378 9.40726 96.8451 10.5968C97.968 11.7708 98.5294 13.2153 98.5294 14.93C98.5294 16.6448 97.968 18.0969 96.8451 19.2864C95.7378 20.4605 94.3966 21.0475 92.8214 21.0475C91.1839 21.0475 89.9206 20.4837 89.0317 19.3559V25.3576H86.0139V9.13691H89.0317V10.5041C89.9206 9.37636 91.1839 8.8125 92.8214 8.8125ZM89.944 17.2936C90.5523 17.8961 91.3242 18.1973 92.26 18.1973C93.1957 18.1973 93.9677 17.8961 94.5759 17.2936C95.1998 16.6757 95.5117 15.8878 95.5117 14.93C95.5117 13.9722 95.1998 13.1921 94.5759 12.5896C93.9677 11.9717 93.1957 11.6627 92.26 11.6627C91.3242 11.6627 90.5523 11.9717 89.944 12.5896C89.3358 13.1921 89.0317 13.9722 89.0317 14.93C89.0317 15.8878 89.3358 16.6757 89.944 17.2936ZM109.547 9.13691H112.565V20.7231H109.547V19.3559C108.643 20.4837 107.372 21.0475 105.734 21.0475C104.175 21.0475 102.833 20.4605 101.71 19.2864C100.603 18.0969 100.05 16.6448 100.05 14.93C100.05 13.2153 100.603 11.7708 101.71 10.5968C102.833 9.40726 104.175 8.8125 105.734 8.8125C107.372 8.8125 108.643 9.37636 109.547 10.5041V9.13691ZM103.98 17.2936C104.588 17.8961 105.36 18.1973 106.296 18.1973C107.231 18.1973 108.003 17.8961 108.612 17.2936C109.235 16.6757 109.547 15.8878 109.547 14.93C109.547 13.9722 109.235 13.1921 108.612 12.5896C108.003 11.9717 107.231 11.6627 106.296 11.6627C105.36 11.6627 104.588 11.9717 103.98 12.5896C103.371 13.1921 103.067 13.9722 103.067 14.93C103.067 15.8878 103.371 16.6757 103.98 17.2936ZM117.994 12.4274C117.994 12.7364 118.197 12.9913 118.603 13.1921C119.024 13.3775 119.53 13.5474 120.123 13.7019C120.716 13.8409 121.308 14.0263 121.901 14.258C122.494 14.4743 122.993 14.8451 123.398 15.3703C123.819 15.8955 124.03 16.5521 124.03 17.3399C124.03 18.5295 123.578 19.4486 122.673 20.0975C121.784 20.7308 120.669 21.0475 119.328 21.0475C116.926 21.0475 115.288 20.1284 114.415 18.29L117.035 16.8302C117.378 17.8343 118.142 18.3364 119.328 18.3364C120.404 18.3364 120.942 18.0042 120.942 17.3399C120.942 17.031 120.731 16.7838 120.31 16.5984C119.905 16.3976 119.406 16.2199 118.813 16.0655C118.22 15.911 117.628 15.7179 117.035 15.4862C116.443 15.2544 115.936 14.8914 115.515 14.3971C115.109 13.8873 114.906 13.2539 114.906 12.4969C114.906 11.3537 115.327 10.4577 116.17 9.80891C117.027 9.14464 118.088 8.8125 119.351 8.8125C120.302 8.8125 121.168 9.02878 121.948 9.46133C122.728 9.87843 123.344 10.4809 123.796 11.2688L121.223 12.6591C120.848 11.8713 120.224 11.4773 119.351 11.4773C118.961 11.4773 118.634 11.5623 118.369 11.7322C118.119 11.9022 117.994 12.1339 117.994 12.4274ZM128.137 12.4274C128.137 12.7364 128.34 12.9913 128.746 13.1921C129.167 13.3775 129.673 13.5474 130.266 13.7019C130.859 13.8409 131.451 14.0263 132.044 14.258C132.637 14.4743 133.136 14.8451 133.541 15.3703C133.962 15.8955 134.173 16.5521 134.173 17.3399C134.173 18.5295 133.721 19.4486 132.816 20.0975C131.927 20.7308 130.812 21.0475 129.471 21.0475C127.069 21.0475 125.431 20.1284 124.558 18.29L127.178 16.8302C127.521 17.8343 128.285 18.3364 129.471 18.3364C130.547 18.3364 131.085 18.0042 131.085 17.3399C131.085 17.031 130.874 16.7838 130.453 16.5984C130.048 16.3976 129.549 16.2199 128.956 16.0655C128.363 15.911 127.771 15.7179 127.178 15.4862C126.586 15.2544 126.079 14.8914 125.658 14.3971C125.252 13.8873 125.049 13.2539 125.049 12.4969C125.049 11.3537 125.47 10.4577 126.313 9.80891C127.17 9.14464 128.231 8.8125 129.494 8.8125C130.445 8.8125 131.311 9.02878 132.091 9.46133C132.871 9.87843 133.487 10.4809 133.939 11.2688L131.366 12.6591C130.991 11.8713 130.367 11.4773 129.494 11.4773C129.104 11.4773 128.777 11.5623 128.512 11.7322C128.262 11.9022 128.137 12.1339 128.137 12.4274Z" fill="#171717"/>
<path d="M19.0072 0.447266H5.84838C2.61841 0.447266 0 3.04093 0 6.24037V19.2749C0 22.4743 2.61841 25.068 5.84838 25.068H19.0072C22.2372 25.068 24.8556 22.4743 24.8556 19.2749V6.24037C24.8556 3.04093 22.2372 0.447266 19.0072 0.447266Z" fill="#3663F5"/>
<path fill-rule="evenodd" clip-rule="evenodd" d="M18.9931 0.502001C18.9987 0.557827 19.0034 0.614319 19.0072 0.671483C19.4571 7.35612 15.9887 10.6119 9.29375 16.8965C8.73616 17.4199 8.15614 17.9644 7.55415 18.5335C5.97134 20.0301 5.38689 22.2842 5.33045 24.9728C4.44812 24.889 3.7784 24.7319 3.19327 24.4366C2.09283 23.8811 1.19814 22.9949 0.637434 21.9049C0 20.6656 0 19.0434 0 15.799V9.71623C0 6.4718 0 4.84959 0.637434 3.61035C1.19814 2.52031 2.09283 1.63408 3.19327 1.07868C4.4443 0.447266 6.08202 0.447266 9.3574 0.447266H15.4982C16.9478 0.447266 18.0766 0.447266 18.9931 0.502001Z" fill="white" fill-opacity="0.05"/>
<path d="M17.0576 8.36523V17.8273H15.1881V11.6905L12.4998 16.0836H12.2814L9.59314 11.704V17.8273H7.70996V8.36523H9.64772L12.3906 12.8394L15.1199 8.36523H17.0576Z" fill="white"/>
<path fill-rule="evenodd" clip-rule="evenodd" d="M10.0905 0.447266C7.90018 6.06766 4.03775 9.58407 0 11.8016V9.71625C0 6.47178 0 4.84957 0.637434 3.61035C1.19814 2.52031 2.09283 1.63408 3.19327 1.07868C4.4443 0.447266 6.08202 0.447266 9.3574 0.447266H10.0905Z" fill="white" fill-opacity="0.05"/>
<path fill-rule="evenodd" clip-rule="evenodd" d="M24.8573 15.4082V15.8015C24.8573 19.0459 24.8573 20.6682 24.2199 21.9074C23.6592 22.9974 22.7645 23.8837 21.664 24.4391C20.5757 24.9884 19.1946 25.0598 16.697 25.0691C17.2881 20.7757 20.415 16.8167 24.8573 15.4082Z" fill="white" fill-opacity="0.07"/>
</svg>
