<svg width="70" height="70" viewBox="0 0 70 70" fill="none" xmlns="http://www.w3.org/2000/svg">
<circle cx="35" cy="35" r="35" fill="#FECB02" fill-opacity="0.07"/>
<path d="M16.9961 32.1758C16.9961 30.5742 17.5742 29.2656 18.7305 28.25C19.8945 27.2266 21.3984 26.7148 23.2422 26.7148C25.0156 26.7148 26.4609 27.1758 27.5781 28.0977C28.6953 29.0117 29.2539 30.1797 29.2539 31.6016C29.2539 32.1094 29.1758 32.6016 29.0195 33.0781C28.8711 33.5469 28.6289 34.0195 28.293 34.4961C27.9648 34.9648 27.6328 35.3906 27.2969 35.7734C26.9609 36.1484 26.5234 36.6055 25.9844 37.1445L21.8594 41.1172V41.1875H29.4883V44H17.1953V41.6211L23.5703 35.4805C24.4297 34.6211 25.0156 33.9297 25.3281 33.4062C25.6484 32.8828 25.8086 32.3281 25.8086 31.7422C25.8086 31.1016 25.5547 30.5625 25.0469 30.125C24.5391 29.6875 23.8984 29.4688 23.125 29.4688C22.3047 29.4688 21.625 29.7266 21.0859 30.2422C20.5469 30.75 20.2773 31.3945 20.2773 32.1758V32.2344H16.9961V32.1758ZM35.9102 44V30.3359H35.8398L31.5273 33.3125V30.125L35.8984 27.0898H39.4141V44H35.9102ZM51.3203 38.7148V43.8359H48.25V38.7148H43.4688V35.7266H48.25V30.6641H51.3203V35.7266H56.1016V38.7148H51.3203Z" fill="#FAC701"/>
</svg>
