<svg width="285" height="89" viewBox="0 0 285 89" fill="none" xmlns="http://www.w3.org/2000/svg">
<path d="M58.6056 10.561C58.5991 11.1113 58.4579 11.6517 58.1943 12.135C57.9308 12.6184 57.5528 13.03 57.0935 13.334L56.967 13.4129H0L0.229183 12.7157C0.268695 12.5921 4.43881 0.50576 22.9001 2.83935C24.6414 2.24479 41.6327 -3.29585 51.8038 2.92882C56.3163 5.69126 58.6056 8.259 58.6056 10.561Z" fill="#3663F5"/>
<path d="M284.627 21.8188C284.621 22.3692 284.479 22.9095 284.216 23.3929C283.952 23.8762 283.574 24.2878 283.115 24.5918L282.989 24.6707H226.021L226.251 23.9735C226.29 23.8499 230.46 11.7636 248.922 14.0972C250.663 13.5026 267.654 7.96196 277.825 14.1866C282.338 16.9491 284.627 19.5168 284.627 21.8188Z" fill="#3663F5"/>
<path d="M99.2677 85.6812C99.2612 86.2315 99.12 86.7718 98.8564 87.2552C98.5929 87.7385 98.215 88.1501 97.7556 88.4541L97.6291 88.533H40.6621L40.8913 87.8359C40.9308 87.7122 45.1009 75.6259 63.5622 77.9595C65.3035 77.3649 82.2948 71.8243 92.4659 78.0489C96.9785 80.8114 99.2677 83.3791 99.2677 85.6812Z" fill="#3663F5"/>
</svg>
