<svg width="554" height="472" viewBox="0 0 554 472" fill="none" xmlns="http://www.w3.org/2000/svg">
<path d="M554 16.4837C467.398 -15.0355 290.81 -19.4208 277.271 213.365C277.271 213.365 8.77585 181.389 1 471" stroke="black" stroke-opacity="0.2" stroke-dasharray="13 13"/>
<circle cx="259.545" cy="197.241" r="29.5448" fill="#3663F5"/>
<g clip-path="url(#clip0)">
<path d="M263.345 183.968H250.138V209.659H269.807V190.43L263.345 183.968ZM263.786 186.537L267.238 189.989H263.786V186.537ZM251.643 208.153V185.473H262.281V191.494H268.302V208.153H251.643Z" fill="white"/>
<path d="M253.901 196.061H266.044V197.566H253.901V196.061Z" fill="white"/>
<path d="M253.896 199.121H266.04V200.627H253.896V199.121Z" fill="white"/>
<path d="M253.896 202.132H266.04V203.637H253.896V202.132Z" fill="white"/>
</g>
<circle cx="333.173" cy="260.552" r="23.4483" fill="#282E5C"/>
<path d="M321.918 253.048V268.495H344.179V253.048L321.918 253.048ZM330.595 266.791H328.489L330.917 264.364L331.976 265.433L330.595 266.791ZM337.867 262.028L342.476 266.636V266.791H333.025L337.867 262.028ZM342.476 264.227L337.877 259.629L333.191 264.238L330.921 261.95L326.08 266.791H323.622V254.752H342.476V264.227Z" fill="white"/>
<path d="M327.881 261.624C329.29 261.624 330.436 260.477 330.436 259.068C330.436 257.659 329.29 256.513 327.881 256.513C326.472 256.513 325.325 257.659 325.325 259.068C325.325 260.477 326.472 261.624 327.881 261.624ZM327.881 258.216C328.35 258.216 328.733 258.598 328.733 259.068C328.733 259.538 328.35 259.92 327.881 259.92C327.411 259.92 327.029 259.538 327.029 259.068C327.029 258.598 327.411 258.216 327.881 258.216Z" fill="white"/>
<circle cx="347.104" cy="176" r="28" fill="#FF8366"/>
<g clip-path="url(#clip1)">
<path d="M346.105 168.219L344.676 165.406H335.104V186.594H359.104V168.219H346.105ZM357.697 185.188H336.51V166.812H343.813L346.672 172.438H357.697V185.188ZM347.535 171.031L346.82 169.625H357.697V171.031H347.535Z" fill="white"/>
<path d="M340.729 183.781H353.479V176.75H340.729V183.781ZM342.135 178.156H352.072V182.375H342.135V178.156Z" fill="white"/>
</g>
<defs>
<clipPath id="clip0">
<rect width="25.6912" height="25.6912" fill="white" transform="translate(247.127 183.968)"/>
</clipPath>
<clipPath id="clip1">
<rect width="24" height="24" fill="white" transform="translate(335.104 164)"/>
</clipPath>
</defs>
</svg>
